<mxfile host="app.diagrams.net" modified="2022-04-03T21:25:22.442Z" agent="5.0 (Windows NT 10.0; Win64; x64) AppleWebKit/537.36 (KHTML, like Gecko) Chrome/99.0.4844.84 Safari/537.36" etag="HpvzlATdzsivkwkbplH1" version="17.4.0" type="gitlab">
  <diagram id="qbdZxWMPr82RpmDVpnMb" name="Page-1">
    <mxGraphModel dx="868" dy="482" grid="1" gridSize="10" guides="1" tooltips="1" connect="1" arrows="1" fold="1" page="1" pageScale="1" pageWidth="827" pageHeight="1169" math="0" shadow="0">
      <root>
        <mxCell id="0" />
        <mxCell id="1" parent="0" />
        <mxCell id="xU04zOomT1eL7m27tYb2-6" style="edgeStyle=orthogonalEdgeStyle;rounded=0;orthogonalLoop=1;jettySize=auto;html=1;fontSize=16;" parent="1" source="xU04zOomT1eL7m27tYb2-2" target="xU04zOomT1eL7m27tYb2-7" edge="1">
          <mxGeometry relative="1" as="geometry">
            <mxPoint x="405" y="220" as="targetPoint" />
          </mxGeometry>
        </mxCell>
        <mxCell id="xU04zOomT1eL7m27tYb2-2" value="&lt;p style=&quot;line-height: 2.9&quot;&gt;&lt;font style=&quot;font-size: 16px&quot;&gt;SALUDO_INTRO_AYUDA&lt;/font&gt;&lt;/p&gt;&lt;p style=&quot;line-height: 2.9&quot;&gt;&lt;font style=&quot;font-size: 16px&quot;&gt;UX: TEXTO&lt;/font&gt;&lt;/p&gt;" style="rounded=1;whiteSpace=wrap;html=1;fillColor=#d5e8d4;strokeColor=#82b366;" parent="1" vertex="1">
          <mxGeometry x="310" y="160" width="190" height="100" as="geometry" />
        </mxCell>
        <mxCell id="xU04zOomT1eL7m27tYb2-3" value="" style="endArrow=none;html=1;rounded=0;exitX=0;exitY=0.5;exitDx=0;exitDy=0;entryX=1;entryY=0.5;entryDx=0;entryDy=0;" parent="1" source="xU04zOomT1eL7m27tYb2-2" target="xU04zOomT1eL7m27tYb2-2" edge="1">
          <mxGeometry width="50" height="50" relative="1" as="geometry">
            <mxPoint x="380" y="160" as="sourcePoint" />
            <mxPoint x="500" y="90" as="targetPoint" />
          </mxGeometry>
        </mxCell>
        <mxCell id="xU04zOomT1eL7m27tYb2-11" value="" style="edgeStyle=orthogonalEdgeStyle;rounded=0;orthogonalLoop=1;jettySize=auto;html=1;fontSize=16;" parent="1" source="xU04zOomT1eL7m27tYb2-7" target="xU04zOomT1eL7m27tYb2-10" edge="1">
          <mxGeometry relative="1" as="geometry" />
        </mxCell>
        <mxCell id="xU04zOomT1eL7m27tYb2-7" value="LISTA_TIPO_EXAMEN&lt;br&gt;&lt;br&gt;UX: TEXTO" style="rounded=1;whiteSpace=wrap;html=1;fontSize=16;fillColor=#d5e8d4;strokeColor=#82b366;" parent="1" vertex="1">
          <mxGeometry x="310" y="310" width="190" height="80" as="geometry" />
        </mxCell>
        <mxCell id="xU04zOomT1eL7m27tYb2-8" value="" style="endArrow=none;html=1;rounded=0;fontSize=16;entryX=1;entryY=0.5;entryDx=0;entryDy=0;exitX=0;exitY=0.5;exitDx=0;exitDy=0;" parent="1" source="xU04zOomT1eL7m27tYb2-7" target="xU04zOomT1eL7m27tYb2-7" edge="1">
          <mxGeometry width="50" height="50" relative="1" as="geometry">
            <mxPoint x="310" y="230" as="sourcePoint" />
            <mxPoint x="360" y="180" as="targetPoint" />
          </mxGeometry>
        </mxCell>
        <mxCell id="xU04zOomT1eL7m27tYb2-15" style="edgeStyle=orthogonalEdgeStyle;rounded=0;orthogonalLoop=1;jettySize=auto;html=1;fontSize=16;" parent="1" source="xU04zOomT1eL7m27tYb2-10" target="xU04zOomT1eL7m27tYb2-16" edge="1">
          <mxGeometry relative="1" as="geometry">
            <mxPoint x="405" y="480" as="targetPoint" />
          </mxGeometry>
        </mxCell>
        <mxCell id="xU04zOomT1eL7m27tYb2-10" value="INGRESA_TIPOEXAMEN&lt;br&gt;" style="whiteSpace=wrap;html=1;fontSize=16;fillColor=#FDFFBA;strokeColor=#d6b656;rounded=1;" parent="1" vertex="1">
          <mxGeometry x="310" y="450" width="190" height="70" as="geometry" />
        </mxCell>
        <mxCell id="xU04zOomT1eL7m27tYb2-18" style="edgeStyle=orthogonalEdgeStyle;rounded=0;orthogonalLoop=1;jettySize=auto;html=1;fontSize=16;" parent="1" source="xU04zOomT1eL7m27tYb2-16" target="xU04zOomT1eL7m27tYb2-19" edge="1">
          <mxGeometry relative="1" as="geometry">
            <mxPoint x="405" y="610" as="targetPoint" />
          </mxGeometry>
        </mxCell>
        <mxCell id="xU04zOomT1eL7m27tYb2-16" value="INFO_EXAMEN&lt;br&gt;&lt;br&gt;UX: TEXTO" style="rounded=1;whiteSpace=wrap;html=1;fontSize=16;fillColor=#d5e8d4;strokeColor=#82b366;" parent="1" vertex="1">
          <mxGeometry x="310" y="585" width="190" height="80" as="geometry" />
        </mxCell>
        <mxCell id="xU04zOomT1eL7m27tYb2-17" value="" style="endArrow=none;html=1;rounded=0;fontSize=16;exitX=0;exitY=0.5;exitDx=0;exitDy=0;entryX=1;entryY=0.5;entryDx=0;entryDy=0;" parent="1" source="xU04zOomT1eL7m27tYb2-16" target="xU04zOomT1eL7m27tYb2-16" edge="1">
          <mxGeometry width="50" height="50" relative="1" as="geometry">
            <mxPoint x="380" y="390" as="sourcePoint" />
            <mxPoint x="430" y="340" as="targetPoint" />
          </mxGeometry>
        </mxCell>
        <mxCell id="xU04zOomT1eL7m27tYb2-21" style="edgeStyle=orthogonalEdgeStyle;rounded=0;orthogonalLoop=1;jettySize=auto;html=1;fontSize=16;" parent="1" source="xU04zOomT1eL7m27tYb2-19" edge="1">
          <mxGeometry relative="1" as="geometry">
            <mxPoint x="320" y="860" as="targetPoint" />
          </mxGeometry>
        </mxCell>
        <mxCell id="xU04zOomT1eL7m27tYb2-22" style="edgeStyle=orthogonalEdgeStyle;rounded=0;orthogonalLoop=1;jettySize=auto;html=1;fontSize=16;" parent="1" source="xU04zOomT1eL7m27tYb2-19" edge="1">
          <mxGeometry relative="1" as="geometry">
            <mxPoint x="490" y="860" as="targetPoint" />
          </mxGeometry>
        </mxCell>
        <mxCell id="xU04zOomT1eL7m27tYb2-19" value="AYUDA_EXTRA&lt;br&gt;&lt;br&gt;UX: Respuesta rápida" style="rounded=1;whiteSpace=wrap;html=1;fontSize=16;fillColor=#d5e8d4;strokeColor=#82b366;" parent="1" vertex="1">
          <mxGeometry x="320" y="720" width="170" height="80" as="geometry" />
        </mxCell>
        <mxCell id="xU04zOomT1eL7m27tYb2-20" value="" style="endArrow=none;html=1;rounded=0;fontSize=16;exitX=0;exitY=0.5;exitDx=0;exitDy=0;entryX=1;entryY=0.5;entryDx=0;entryDy=0;" parent="1" source="xU04zOomT1eL7m27tYb2-19" target="xU04zOomT1eL7m27tYb2-19" edge="1">
          <mxGeometry width="50" height="50" relative="1" as="geometry">
            <mxPoint x="380" y="510" as="sourcePoint" />
            <mxPoint x="430" y="460" as="targetPoint" />
          </mxGeometry>
        </mxCell>
        <mxCell id="xU04zOomT1eL7m27tYb2-25" style="edgeStyle=orthogonalEdgeStyle;rounded=0;orthogonalLoop=1;jettySize=auto;html=1;exitX=0;exitY=0.5;exitDx=0;exitDy=0;fontSize=16;entryX=0;entryY=0.5;entryDx=0;entryDy=0;" parent="1" source="xU04zOomT1eL7m27tYb2-23" target="xU04zOomT1eL7m27tYb2-7" edge="1">
          <mxGeometry relative="1" as="geometry">
            <mxPoint x="220" y="240" as="targetPoint" />
          </mxGeometry>
        </mxCell>
        <mxCell id="xU04zOomT1eL7m27tYb2-23" value="CLICK EN MENÚ&lt;br&gt;SI" style="rounded=1;whiteSpace=wrap;html=1;fontSize=16;fillColor=#FDFFBA;strokeColor=#d6b656;" parent="1" vertex="1">
          <mxGeometry x="250" y="870" width="130" height="70" as="geometry" />
        </mxCell>
        <mxCell id="xU04zOomT1eL7m27tYb2-26" style="edgeStyle=orthogonalEdgeStyle;rounded=0;orthogonalLoop=1;jettySize=auto;html=1;exitX=0.5;exitY=1;exitDx=0;exitDy=0;fontSize=16;" parent="1" source="xU04zOomT1eL7m27tYb2-24" target="xU04zOomT1eL7m27tYb2-27" edge="1">
          <mxGeometry relative="1" as="geometry">
            <mxPoint x="500" y="890" as="targetPoint" />
          </mxGeometry>
        </mxCell>
        <mxCell id="xU04zOomT1eL7m27tYb2-24" value="CLICK EN MENÚ&lt;br&gt;NO" style="rounded=1;whiteSpace=wrap;html=1;fontSize=16;fillColor=#FDFFBA;strokeColor=#d6b656;" parent="1" vertex="1">
          <mxGeometry x="430" y="870" width="140" height="70" as="geometry" />
        </mxCell>
        <mxCell id="xU04zOomT1eL7m27tYb2-27" value="DESPEDIDA_AYUDA&lt;br&gt;&lt;br&gt;UX: IMAGEN, TEXTO" style="rounded=1;whiteSpace=wrap;html=1;fontSize=16;fillColor=#d5e8d4;strokeColor=#82b366;" parent="1" vertex="1">
          <mxGeometry x="410" y="980" width="180" height="70" as="geometry" />
        </mxCell>
        <mxCell id="xU04zOomT1eL7m27tYb2-28" value="" style="endArrow=none;html=1;rounded=0;fontSize=16;entryX=0;entryY=0.5;entryDx=0;entryDy=0;exitX=1;exitY=0.5;exitDx=0;exitDy=0;" parent="1" source="xU04zOomT1eL7m27tYb2-27" target="xU04zOomT1eL7m27tYb2-27" edge="1">
          <mxGeometry width="50" height="50" relative="1" as="geometry">
            <mxPoint x="380" y="980" as="sourcePoint" />
            <mxPoint x="450" y="910" as="targetPoint" />
          </mxGeometry>
        </mxCell>
        <mxCell id="JFrZb8uljfgTLNg-RvgG-6" style="edgeStyle=orthogonalEdgeStyle;rounded=0;orthogonalLoop=1;jettySize=auto;html=1;fontSize=16;" edge="1" parent="1" source="JFrZb8uljfgTLNg-RvgG-1" target="xU04zOomT1eL7m27tYb2-2">
          <mxGeometry relative="1" as="geometry" />
        </mxCell>
        <mxCell id="JFrZb8uljfgTLNg-RvgG-1" value="CONSULTA_AYUDA" style="rounded=1;whiteSpace=wrap;html=1;fontSize=16;fillColor=#FDFFBA;" vertex="1" parent="1">
          <mxGeometry x="315" y="40" width="180" height="70" as="geometry" />
        </mxCell>
        <mxCell id="JFrZb8uljfgTLNg-RvgG-8" value="&lt;div style=&quot;text-align: justify&quot;&gt;&lt;span&gt;En amarillo se definen las acciones esperadas por parte del cliente.&lt;/span&gt;&lt;/div&gt;" style="rounded=0;whiteSpace=wrap;html=1;fontSize=16;fillColor=#f5f5f5;strokeColor=#666666;fontColor=#333333;sketch=0;glass=1;shadow=1;" vertex="1" parent="1">
          <mxGeometry x="10" y="40" width="190" height="110" as="geometry" />
        </mxCell>
        <mxCell id="JFrZb8uljfgTLNg-RvgG-9" value="&lt;div style=&quot;text-align: justify&quot;&gt;&lt;span&gt;En verde se definen la acción del bot. Se indica el código de la acción.&lt;/span&gt;&lt;/div&gt;&lt;div style=&quot;text-align: justify&quot;&gt;&lt;span&gt;Luego en UX se indica el tipo de componente disponible.&lt;/span&gt;&lt;/div&gt;" style="rounded=0;whiteSpace=wrap;html=1;fontSize=16;fillColor=#f5f5f5;fontColor=#333333;strokeColor=#666666;shadow=1;sketch=0;glass=1;" vertex="1" parent="1">
          <mxGeometry x="600" y="40" width="200" height="110" as="geometry" />
        </mxCell>
      </root>
    </mxGraphModel>
  </diagram>
</mxfile>
